<?xml version="1.0" encoding="iso-8859-1"?>
<!-- Generator: Adobe Illustrator 18.0.0, SVG Export Plug-In . SVG Version: 6.00 Build 0)  -->
<!DOCTYPE svg PUBLIC "-//W3C//DTD SVG 1.1//EN" "http://www.w3.org/Graphics/SVG/1.1/DTD/svg11.dtd">
<svg xmlns="http://www.w3.org/2000/svg" xmlns:xlink="http://www.w3.org/1999/xlink" version="1.1" id="Capa_1" x="0px" y="0px" viewBox="0 0 56.68 56.68" style="enable-background:new 0 0 56.68 56.68;" xml:space="preserve" width="512px" height="512px">
<g>
	<path d="M45.326,14.549c-2.304,1.363-4.966,2.131-7.753,2.131c-0.606,0-1.22-0.037-1.825-0.109l-9.091-1.091l3.402-7.717   C29.485,7.721,28.91,7.68,28.34,7.68c-13.509,0-24.5,10.991-24.5,24.5s10.991,24.5,24.5,24.5c4.383,0,8.497-1.163,12.06-3.187   l3.55-6.6c2.529-4.786,2.788-11.334,0.639-16.289c-1.112-2.564-3.362-5.862-7.744-7.1c-0.002,0-0.004,0.001-0.005,0.001   c-0.128,0-0.259-0.025-0.385-0.078c-0.046-0.019-2.059-0.823-5.636-0.898c-3.724-0.078-7.87-0.652-9.923-6.519   c-0.183-0.521,0.092-1.092,0.613-1.274c0.524-0.182,1.092,0.093,1.274,0.613c1.634,4.668,4.625,5.108,8.077,5.18   c3.51,0.074,5.672,0.792,6.226,0.999c0.062,0.005,0.122-0.005,0.184,0.012c4.071,1.11,7.322,4.047,9.152,8.269   c2.414,5.567,2.136,12.642-0.709,18.025l-1.697,3.156c5.387-4.498,8.822-11.259,8.822-18.809   C52.84,25.485,50.08,19.133,45.326,14.549z M11.395,39.081c-0.109,0.039-0.221,0.057-0.331,0.057c-0.413,0-0.799-0.258-0.943-0.669   c-1.36-3.875-1.479-8.152-0.335-12.044c0.156-0.53,0.714-0.834,1.241-0.678c0.53,0.156,0.833,0.711,0.678,1.241   c-1.026,3.494-0.918,7.336,0.303,10.818C12.191,38.328,11.916,38.898,11.395,39.081z M15.662,20.117   c-0.929,0.975-1.739,2.062-2.409,3.231c-0.185,0.323-0.521,0.503-0.869,0.503c-0.168,0-0.339-0.042-0.496-0.132   c-0.479-0.274-0.646-0.885-0.371-1.364c0.749-1.31,1.656-2.526,2.697-3.618c0.381-0.399,1.015-0.414,1.414-0.034   C16.029,19.084,16.044,19.717,15.662,20.117z" fill="#616161"/>
	<path d="M43.693,5.479c0.288,0.471,0.14,1.086-0.332,1.375L31.58,14.056l4.406,0.529c0.525,0.063,1.059,0.095,1.586,0.095   c0,0,0,0,0.001,0c5.246,0,10.004-3.104,12.122-7.908L52.3,0.865l-6.41-0.77C45.365,0.032,44.831,0,44.303,0   c-5.247,0-10.005,3.104-12.123,7.908l-2.075,4.706l12.212-7.466C42.789,4.858,43.406,5.007,43.693,5.479z" fill="#616161"/>
</g>
<g>
</g>
<g>
</g>
<g>
</g>
<g>
</g>
<g>
</g>
<g>
</g>
<g>
</g>
<g>
</g>
<g>
</g>
<g>
</g>
<g>
</g>
<g>
</g>
<g>
</g>
<g>
</g>
<g>
</g>
</svg>
